{
    "collection": [
        {
            "avatar_url": "https://i1.sndcdn.com/avatars-000451809714-n5njwk-large.jpg",
            "city": "",
            "comments_count": 27,
            "country_code": null,
            "created_at": "2009-05-11T16:14:44Z",
            "creator_subscriptions": [
                {
                    "product": {
                        "id": "creator-pro-unlimited"
                    }
                }
            ],
            "creator_subscription": {
                "product": {
                    "id": "creator-pro-unlimited"
                }
            },
            "description": "Check out our weekly @NoisiaRadio podcast.\n\nNoisia comprise Dutch producers Thijs, Nik and Martijn. Largely regarded as one of the most distinctive, powerful acts to emerge in bass music, their production techniques are referenced and praised across the entire electronic music scene. Their extensive body of work also includes the game Devil May Cry and the Foreign Beggars collaboration I Am Legion.",
            "followers_count": 3969942,
            "followings_count": 87,
            "first_name": "Outer",
            "full_name": "Outer Edges",
            "groups_count": 0,
            "id": 116681,
            "kind": "user",
            "last_modified": "2018-12-10T09:16:30Z",
            "last_name": "Edges",
            "likes_count": 53,
            "playlist_likes_count": 20,
            "permalink": "noisia",
            "permalink_url": "https://soundcloud.com/noisia",
            "playlist_count": 50,
            "reposts_count": null,
            "track_count": 474,
            "uri": "https://api.soundcloud.com/users/116681",
            "urn": "soundcloud:users:116681",
            "username": "NOISIA",
            "verified": false,
            "visuals": {
                "urn": "soundcloud:users:116681",
                "enabled": true,
                "visuals": [
                    {
                        "urn": "soundcloud:visuals:58362655",
                        "entry_time": 0,
                        "visual_url": "https://i1.sndcdn.com/visuals-000000116681-J99pQa-original.jpg",
                        "link": "https://www.noisia.nl/store"
                    }
                ]
            }
        },
        {
            "avatar_url": "https://i1.sndcdn.com/avatars-000559848966-7tof1c-large.jpg",
            "city": null,
            "comments_count": 97,
            "country_code": null,
            "created_at": "2016-01-19T00:10:42Z",
            "creator_subscriptions": [
                {
                    "product": {
                        "id": "creator-pro-unlimited"
                    }
                }
            ],
            "creator_subscription": {
                "product": {
                    "id": "creator-pro-unlimited"
                }
            },
            "description": "@Noisia's weekly radio show",
            "followers_count": 51093,
            "followings_count": 5,
            "first_name": "Noisia ",
            "full_name": "Noisia  Radio",
            "groups_count": 0,
            "id": 200416485,
            "kind": "user",
            "last_modified": "2019-01-02T15:32:18Z",
            "last_name": "Radio",
            "likes_count": 0,
            "playlist_likes_count": 1,
            "permalink": "noisiaradio",
            "permalink_url": "https://soundcloud.com/noisiaradio",
            "playlist_count": 0,
            "reposts_count": null,
            "track_count": 170,
            "uri": "https://api.soundcloud.com/users/200416485",
            "urn": "soundcloud:users:200416485",
            "username": "Noisia Radio",
            "verified": false,
            "visuals": {
                "urn": "soundcloud:users:200416485",
                "enabled": true,
                "visuals": [
                    {
                        "urn": "soundcloud:visuals:59857252",
                        "entry_time": 0,
                        "visual_url": "https://i1.sndcdn.com/visuals-000200416485-oLV96J-original.jpg"
                    }
                ]
            }
        },
        {
            "avatar_url": "https://i1.sndcdn.com/avatars-000003205946-m6z7j0-large.jpg",
            "city": "London",
            "comments_count": 1,
            "country_code": "GB",
            "created_at": "2011-04-04T21:15:39Z",
            "creator_subscriptions": [
                {
                    "product": {
                        "id": "free"
                    }
                }
            ],
            "creator_subscription": {
                "product": {
                    "id": "free"
                }
            },
            "description": null,
            "followers_count": 359,
            "followings_count": 0,
            "first_name": "Official",
            "full_name": "Official Noisia",
            "groups_count": 0,
            "id": 4014859,
            "kind": "user",
            "last_modified": "2011-04-04T21:17:44Z",
            "last_name": "Noisia",
            "likes_count": 0,
            "playlist_likes_count": 0,
            "permalink": "noisia-1",
            "permalink_url": "https://soundcloud.com/noisia-1",
            "playlist_count": 0,
            "reposts_count": null,
            "track_count": 0,
            "uri": "https://api.soundcloud.com/users/4014859",
            "urn": "soundcloud:users:4014859",
            "username": "Noisia",
            "verified": false,
            "visuals": null
        }
    ],
    "total_results": 810,
    "next_href": "https://api-v2.soundcloud.com/search/users?q=noisia&offset=3&query_urn=soundcloud%3Asearch%3A80e1234eaae34bfaa13d5f0a0c90a712&limit=3",
    "query_urn": "soundcloud:search:80e1234eaae34bfaa13d5f0a0c90a712"
}
